project_5/project_5.sim/sim_1/behav/xsim/divider_wave.vcd
$date
   Wed Apr  9 15:46:22 2025
$end
$version
  2018.3
$end
$timescale
  1ps
$end
$scope module Divider_tb $end
$var reg 1 ! clk $end
$var reg 1 " rst $end
$var reg 32 # input_data [31:0] $end
$var reg 1 $ input_A $end
$var reg 1 % input_B $end
$var reg 1 & sel_meth $end
$var reg 1 ' sel_sign $end
$var wire 8 ( seg [7:0] $end
$var wire 1 ) enable $end
$var wire 32 * leds [31:0] $end
$scope module uut $end
$var wire 1 + clk $end
$var wire 1 , rst $end
$var wire 32 - input_data [31:0] $end
$var wire 1 . input_A $end
$var wire 1 / input_B $end
$var wire 1 0 sel_meth $end
$var wire 1 1 sel_sign $end
$var wire 8 ( seg [7:0] $end
$var wire 1 ) enable $end
$var wire 32 * leds [31:0] $end
$var wire 32 2 quotient [31:0] $end
$var wire 16 3 remainder [15:0] $end
$var reg 32 4 A [31:0] $end
$var reg 32 5 B [31:0] $end
$var reg 1 6 toggle_input $end
$var reg 1 7 use_ip $end
$var reg 1 8 signed_mode $end
$var wire 5 9 array_Q [4:0] $end
$var wire 5 : array_R [4:0] $end
$var wire 32 ; ip_Q [31:0] $end
$var wire 16 < ip_R [15:0] $end
$var reg 1 = ip_valid $end
$var reg 1 > ip_error $end
$var wire 11 ? count [10:0] $end
$var wire 4 @ digit [3:0] $end
$scope module innput_val $end
$var wire 1 . input_A $end
$var wire 1 / input_B $end
$var wire 32 - input_data [31:0] $end
$var reg 32 A A [31:0] $end
$var reg 32 B B [31:0] $end
$upscope $end
$scope module array_div $end
$var wire 1 + clk $end
$var wire 1 , rst $end
$var wire 11 C A [10:0] $end
$var wire 6 D B [5:0] $end
$var reg 5 E Q [4:0] $end
$var reg 5 F R [4:0] $end
$var wire 1 G sign_Q $end
$var wire 1 H sign_R $end
$var wire 9 I abs_A [8:0] $end
$var wire 4 J abs_B [3:0] $end
$var wire 4 K quotient [3:0] $end
$var wire 4 L divisor [3:0] $end
$var wire 5 M \row[0].sub_out  [4:0] $end
$var wire 4 N \row[0].carry  [3:0] $end
$var wire 5 O \row[1].sub_out  [4:0] $end
$var wire 4 P \row[1].carry  [3:0] $end
$var wire 5 Q \row[2].sub_out  [4:0] $end
$var wire 4 R \row[2].carry  [3:0] $end
$var wire 5 S \row[3].sub_out  [4:0] $end
$var wire 4 T \row[3].carry  [3:0] $end
$scope module row[0].col[0].cas_unit $end
$var wire 1 U P $end
$var wire 1 V A $end
$var wire 1 W B $end
$var wire 1 X Cin $end
$var wire 1 Y S $end
$var wire 1 Z Cout $end
$upscope $end
$scope module row[0].col[1].cas_unit $end
$var wire 1 [ P $end
$var wire 1 \ A $end
$var wire 1 ] B $end
$var wire 1 ^ Cin $end
$var wire 1 _ S $end
$var wire 1 ` Cout $end
$upscope $end
$scope module row[0].col[2].cas_unit $end
$var wire 1 a P $end
$var wire 1 b A $end
$var wire 1 c B $end
$var wire 1 d Cin $end
$var wire 1 e S $end
$var wire 1 f Cout $end
$upscope $end
$scope module row[0].col[3].cas_unit $end
$var wire 1 g P $end
$var wire 1 h A $end
$var wire 1 i B $end
$var wire 1 j Cin $end
$var wire 1 k S $end
$var wire 1 l Cout $end
$upscope $end
$scope module row[1].col[0].cas_unit $end
$var wire 1 m P $end
$var wire 1 n A $end
$var wire 1 W B $end
$var wire 1 o Cin $end
$var wire 1 p S $end
$var wire 1 q Cout $end
$upscope $end
$scope module row[1].col[1].cas_unit $end
$var wire 1 r P $end
$var wire 1 s A $end
$var wire 1 ] B $end
$var wire 1 t Cin $end
$var wire 1 u S $end
$var wire 1 v Cout $end
$upscope $end
$scope module row[1].col[2].cas_unit $end
$var wire 1 w P $end
$var wire 1 x A $end
$var wire 1 c B $end
$var wire 1 y Cin $end
$var wire 1 z S $end
$var wire 1 { Cout $end
$upscope $end
$scope module row[1].col[3].cas_unit $end
$var wire 1 | P $end
$var wire 1 } A $end
$var wire 1 i B $end
$var wire 1 ~ Cin $end
$var wire 1 !! S $end
$var wire 1 "! Cout $end
$upscope $end
$scope module row[2].col[0].cas_unit $end
$var wire 1 #! P $end
$var wire 1 $! A $end
$var wire 1 W B $end
$var wire 1 %! Cin $end
$var wire 1 &! S $end
$var wire 1 '! Cout $end
$upscope $end
$scope module row[2].col[1].cas_unit $end
$var wire 1 (! P $end
$var wire 1 )! A $end
$var wire 1 ] B $end
$var wire 1 *! Cin $end
$var wire 1 +! S $end
$var wire 1 ,! Cout $end
$upscope $end
$scope module row[2].col[2].cas_unit $end
$var wire 1 -! P $end
$var wire 1 .! A $end
$var wire 1 c B $end
$var wire 1 /! Cin $end
$var wire 1 0! S $end
$var wire 1 1! Cout $end
$upscope $end
$scope module row[2].col[3].cas_unit $end
$var wire 1 2! P $end
$var wire 1 3! A $end
$var wire 1 i B $end
$var wire 1 4! Cin $end
$var wire 1 5! S $end
$var wire 1 6! Cout $end
$upscope $end
$scope module row[3].col[0].cas_unit $end
$var wire 1 7! P $end
$var wire 1 8! A $end
$var wire 1 W B $end
$var wire 1 9! Cin $end
$var wire 1 :! S $end
$var wire 1 ;! Cout $end
$upscope $end
$scope module row[3].col[1].cas_unit $end
$var wire 1 <! P $end
$var wire 1 =! A $end
$var wire 1 ] B $end
$var wire 1 >! Cin $end
$var wire 1 ?! S $end
$var wire 1 @! Cout $end
$upscope $end
$scope module row[3].col[2].cas_unit $end
$var wire 1 A! P $end
$var wire 1 B! A $end
$var wire 1 c B $end
$var wire 1 C! Cin $end
$var wire 1 D! S $end
$var wire 1 E! Cout $end
$upscope $end
$scope module row[3].col[3].cas_unit $end
$var wire 1 F! P $end
$var wire 1 G! A $end
$var wire 1 i B $end
$var wire 1 H! Cin $end
$var wire 1 I! S $end
$var wire 1 J! Cout $end
$upscope $end
$upscope $end
$scope module display_inst $end
$var wire 1 + clk $end
$var wire 32 2 quotient [31:0] $end
$var wire 16 3 remainder [15:0] $end
$var wire 1 K! toggle_input $end
$var wire 6 L! array_Q [5:0] $end
$var wire 12 M! array_R [11:0] $end
$var reg 32 N! leds [31:0] $end
$var reg 8 O! seg [7:0] $end
$var reg 4 P! digit [3:0] $end
$var reg 3 Q! count [2:0] $end
$var reg 3 R! which [2:0] $end
$var reg 1 S! enable $end
$upscope $end
$scope module ip_inst $end
$var wire 1 T! clk $end
$var wire 1 U! rst $end
$var wire 1 V! sel_sign $end
$var wire 32 W! A [31:0] $end
$var wire 16 X! B [15:0] $end
$var reg 32 Y! Q [31:0] $end
$var reg 16 Z! R [15:0] $end
$var reg 1 [! ip_error $end
$var wire 48 \! unsigned_data [47:0] $end
$var wire 48 ]! signed_data [47:0] $end
$var wire 1 ^! unsigned_valid $end
$var wire 1 _! signed_valid $end
$var reg 1 `! result_sel $end
$var wire 48 a! selected_data [47:0] $end
$var wire 1 b! selected_valid $end
$var wire 1 c! ip_valid $end
$scope module u_unsigned $end
$var wire 1 d! aclk $end
$var wire 1 e! s_axis_divisor_tvalid $end
$var wire 16 f! s_axis_divisor_tdata [15:0] $end
$var wire 1 g! s_axis_dividend_tvalid $end
$var wire 32 h! s_axis_dividend_tdata [31:0] $end
$var wire 1 i! m_axis_dout_tvalid $end
$var wire 1 j! m_axis_dout_tuser [0:0] $end
$var wire 48 k! m_axis_dout_tdata [47:0] $end
$upscope $end
$scope module u_signed $end
$var wire 1 l! aclk $end
$var wire 1 m! s_axis_divisor_tvalid $end
$var wire 16 n! s_axis_divisor_tdata [15:0] $end
$var wire 1 o! s_axis_dividend_tvalid $end
$var wire 32 p! s_axis_dividend_tdata [31:0] $end
$var wire 1 q! m_axis_dout_tvalid $end
$var wire 1 r! m_axis_dout_tuser [0:0] $end
$var wire 48 s! m_axis_dout_tdata [47:0] $end
$upscope $end
$upscope $end
$upscope $end
$scope task set_input $end
$var reg 32 t! a_val [31:0] $end
$var reg 32 u! b_val [31:0] $end
$upscope $end
$scope task verify_result $end
$var reg 32 v! expected_q [31:0] $end
$var reg 16 w! expected_r [15:0] $end
$upscope $end
$upscope $end
$enddefinitions $end
#0
$dumpvars
0!
x!!
1"
x"!
bx #
x#!
x$
x$!
x%
x%!
0&
x&!
0'
x'!
bx (
x(!
0)
x)!
bz000000000000000zzzzzzz000000000 *
x*!
0+
x+!
1,
x,!
bx -
x-!
x.
x.!
x/
x/!
00
x0!
01
x1!
bz 2
x2!
bz 3
x3!
bx 4
x4!
bx 5
x5!
06
x6!
07
x7!
08
x8!
b0 9
x9!
b0 :
x:!
bx ;
x;!
bx <
x<!
x=
x=!
x>
x>!
bz ?
x?!
bz @
x@!
bx A
xA!
bx B
xB!
bzxxxxxxxxxx C
xC!
bx D
xD!
b0 E
xE!
b0 F
xF!
xG
xG!
zH
xH!
bx I
xI!
bx J
xJ!
bx K
0K!
bx L
bz00000 L!
bx M
bz00000 M!
bx N
bz000000000000000zzzzzzz000000000 N!
bx O
bx O!
bx P
bz P!
bx Q
b0 Q!
bx R
b0 R!
bx S
0S!
bx T
zT!
xU
zU!
xV
zV!
xW
bx W!
xX
bx X!
xY
bx Y!
xZ
bx Z!
x[
x[!
x\
b0 \!
x]
b0 ]!
x^
0^!
x_
0_!
x`
x`!
xa
b0 a!
xb
0b!
xc
xc!
xd
xd!
xe
xe!
xf
bx f!
xg
xg!
xh
bx h!
xi
0i!
xj
0j!
xk
b0 k!
xl
xl!
xm
xm!
xn
bx n!
xo
xo!
xp
bx p!
xq
0q!
xr
0r!
xs
b0 s!
xt
bx t!
xu
bx u!
xv
bx v!
xw
bx w!
xx
xy
xz
x{
x|
x}
x~
$end
#1000
1!
1+
b0 F
b1 Q!
#2000
0!
0+
#3000
1!
1+
b0 F
b10 Q!
#4000
0!
0+
#5000
1!
1+
b0 F
b11 Q!
#6000
0!
0+
#7000
1!
1+
b0 F
b100 Q!
#8000
0!
0+
#9000
1!
1+
b0 F
b101 Q!
#10000
0!
0+
#11000
1!
1+
b0 F
b110 Q!
#12000
0!
0+
#13000
1!
1+
b0 F
b111 Q!
#14000
0!
0+
b1 R!
#15000
1!
1+
b0 F
b0 Q!
#16000
0!
0+
#17000
1!
1+
b0 F
b1 Q!
#18000
0!
0+
#19000
1!
1+
b0 F
b10 Q!
#20000
0!
0"
0+
0,
#21000
1!
bzxxxxx0000000000zzzzzzzzxxxx0000 *
1+
bx 9
bzxxxx :
bx E
bzxxxx F
bzxxxxx L!
bzxxxx M!
bzxxxxx0000000000zzzzzzzzxxxx0000 N!
b11 Q!
0S!
#22000
0!
0+
#23000
1!
1+
bzxxxx F
b100 Q!
#24000
0!
0+
#25000
1!
1+
bzxxxx F
b101 Q!
#26000
0!
0+
#27000
1!
1+
bzxxxx F
b110 Q!
#28000
0!
0+
#29000
1!
1+
bzxxxx F
b111 Q!
#30000
0!
0+
b10 R!
#31000
1!
1+
bzxxxx F
b0 Q!
#32000
0!
0+
#33000
1!
1+
bzxxxx F
b1 Q!
#34000
0!
0+
#35000
1!
1+
bzxxxx F
b10 Q!
#36000
0!
0+
#37000
1!
1+
bzxxxx F
b11 Q!
#38000
0!
0+
#39000
1!
1+
bzxxxx F
b100 Q!
#40000
0!
b1100 #
1$
0+
b1100 -
1.
b1100 A
b1100 t!
b11 u!
#41000
1!
1+
bzxxxx F
b101 Q!
#42000
0!
0+
#43000
1!
1+
bzxxxx F
b110 Q!
#44000
0!
0+
#45000
1!
1+
bzxxxx F
b111 Q!
#46000
0!
0+
b11 R!
#47000
1!
1+
bzxxxx F
b0 Q!
#48000
0!
0+
#49000
1!
1+
bzxxxx F
b1 Q!
#50000
0!
0$
0+
0.
#51000
1!
1+
bzxxxx F
b10 Q!
#52000
0!
0+
#53000
1!
1+
bzxxxx F
b11 Q!
#54000
0!
0+
#55000
1!
1+
bzxxxx F
b100 Q!
#56000
0!
0+
#57000
1!
1+
bzxxxx F
b101 Q!
#58000
0!
0+
#59000
1!
1+
bzxxxx F
b110 Q!
#60000
0!
b11 #
1%
0+
b11 -
1/
b11 B
#61000
1!
1+
bzxxxx F
b111 Q!
#62000
0!
0+
b100 R!
#63000
1!
1+
bzxxxx F
b0 Q!
#64000
0!
0+
#65000
1!
1+
bzxxxx F
b1 Q!
#66000
0!
0+
#67000
1!
1+
bzxxxx F
b10 Q!
#68000
0!
0+
#69000
1!
1+
bzxxxx F
b11 Q!
#70000
0!
0%
0+
0/
#71000
1!
1+
bzxxxx F
b100 Q!
#72000
0!
0+
#73000
1!
1+
bzxxxx F
b101 Q!
#74000
0!
0+
#75000
1!
1+
bzxxxx F
b110 Q!
#76000
0!
0+
#77000
1!
1+
bzxxxx F
b111 Q!
#78000
0!
0+
b101 R!
#79000
1!
1+
bzxxxx F
b0 Q!
#80000
0!
0+
b100 v!
b0 w!
#81000
1!
1+
bzxxxx F
b1 Q!
#82000
0!
0+
#83000
1!
1+
bzxxxx F
b10 Q!
#84000
0!
0+
#85000
1!
1+
bzxxxx F
b11 Q!
#86000
0!
0+
#87000
1!
1+
bzxxxx F
b100 Q!
#88000
0!
0+
#89000
1!
1+
bzxxxx F
b101 Q!
#90000
0!
0+
#91000
1!
1+
bzxxxx F
b110 Q!
#92000
0!
0+
#93000
1!
1+
bzxxxx F
b111 Q!
#94000
0!
0+
b110 R!
#95000
1!
1+
bzxxxx F
b0 Q!
#96000
0!
0+
#97000
1!
1+
bzxxxx F
b1 Q!
#98000
0!
0+
#99000
1!
1+
bzxxxx F
b10 Q!
#100000
0!
0+
#101000
1!
1+
bzxxxx F
b11 Q!
#102000
0!
0+
#103000
1!
1+
bzxxxx F
b100 Q!
#104000
0!
0+
#105000
1!
1+
bzxxxx F
b101 Q!
#106000
0!
0+
#107000
1!
1+
bzxxxx F
b110 Q!
#108000
0!
0+
#109000
1!
1+
bzxxxx F
b111 Q!
#110000
0!
0+
b111 R!
#111000
1!
1+
bzxxxx F
b0 Q!
#112000
0!
0+
#113000
1!
1+
bzxxxx F
b1 Q!
#114000
0!
0+
#115000
1!
1+
bzxxxx F
b10 Q!
#116000
0!
0+
#117000
1!
1+
bzxxxx F
b11 Q!
#118000
0!
0+
#119000
1!
1+
bzxxxx F
b100 Q!
#120000
0!
0+
#121000
1!
1+
bzxxxx F
b101 Q!
#122000
0!
0+
#123000
1!
1+
bzxxxx F
b110 Q!
#124000
0!
0+
#125000
1!
1+
bzxxxx F
b111 Q!
#126000
0!
0+
b0 R!
#127000
1!
1+
bzxxxx F
b0 Q!
#128000
0!
0+
#129000
1!
1+
bzxxxx F
b1 Q!
#130000
0!
0+
#131000
1!
1+
bzxxxx F
b10 Q!
#132000
0!
0+
#133000
1!
1+
bzxxxx F
b11 Q!
#134000
0!
0+
#135000
1!
1+
bzxxxx F
b100 Q!
#136000
0!
0+
#137000
1!
1+
bzxxxx F
b101 Q!
#138000
0!
0+
#139000
1!
1+
bzxxxx F
b110 Q!
#140000
0!
0+
#141000
1!
1+
bzxxxx F
b111 Q!
#142000
0!
0+
b1 R!
#143000
1!
1+
bzxxxx F
b0 Q!
#144000
0!
0+
#145000
1!
1+
bzxxxx F
b1 Q!
#146000
0!
0+
#147000
1!
1+
bzxxxx F
b10 Q!
#148000
0!
0+
#149000
1!
1+
bzxxxx F
b11 Q!
#150000
0!
0+
#151000
1!
1+
bzxxxx F
b100 Q!
#152000
0!
0+
#153000
1!
1+
bzxxxx F
b101 Q!
#154000
0!
0+
#155000
1!
1+
bzxxxx F
b110 Q!
#156000
0!
0+
#157000
1!
1+
bzxxxx F
b111 Q!
#158000
0!
0+
b10 R!
#159000
1!
1+
bzxxxx F
b0 Q!
#160000
0!
0+
#161000
1!
1+
bzxxxx F
b1 Q!
#162000
0!
0+
#163000
1!
1+
bzxxxx F
b10 Q!
#164000
0!
0+
#165000
1!
1+
bzxxxx F
b11 Q!
#166000
0!
0+
#167000
1!
1+
bzxxxx F
b100 Q!
#168000
0!
0+
#169000
1!
1+
bzxxxx F
b101 Q!
#170000
0!
0+
#171000
1!
1+
bzxxxx F
b110 Q!
#172000
0!
0+
#173000
1!
1+
bzxxxx F
b111 Q!
#174000
0!
0+
b11 R!
#175000
1!
1+
bzxxxx F
b0 Q!
#176000
0!
0+
#177000
1!
1+
bzxxxx F
b1 Q!
#178000
0!
0+
#179000
1!
1+
bzxxxx F
b10 Q!
#180000
0!
b1111 #
1$
0+
b1111 -
1.
b1111 A
b1111 t!
b100 u!
#181000
1!
1+
bzxxxx F
b11 Q!
#182000
0!
0+
#183000
1!
1+
bzxxxx F
b100 Q!
#184000
0!
0+
#185000
1!
1+
bzxxxx F
b101 Q!
#186000
0!
0+
#187000
1!
1+
bzxxxx F
b110 Q!
#188000
0!
0+
#189000
1!
1+
bzxxxx F
b111 Q!
#190000
0!
0$
0+
0.
b100 R!
#191000
1!
1+
bzxxxx F
b0 Q!
#192000
0!
0+
#193000
1!
1+
bzxxxx F
b1 Q!
#194000
0!
0+
#195000
1!
1+
bzxxxx F
b10 Q!
#196000
0!
0+
#197000
1!
1+
bzxxxx F
b11 Q!
#198000
0!
0+
#199000
1!
1+
bzxxxx F
b100 Q!
#200000
0!
b100 #
1%
0+
b100 -
1/
b100 B
#201000
1!
1+
bzxxxx F
b101 Q!
#202000
0!
0+
#203000
1!
1+
bzxxxx F
b110 Q!
#204000
0!
0+
#205000
1!
1+
bzxxxx F
b111 Q!
#206000
0!
0+
b101 R!
#207000
1!
1+
bzxxxx F
b0 Q!
#208000
0!
0+
#209000
1!
1+
bzxxxx F
b1 Q!
#210000
0!
0%
0+
0/
#211000
1!
1+
bzxxxx F
b10 Q!
#212000
0!
0+
#213000
1!
1+
bzxxxx F
b11 Q!
#214000
0!
0+
#215000
1!
1+
bzxxxx F
b100 Q!
#216000
0!
0+
#217000
1!
1+
bzxxxx F
b101 Q!
#218000
0!
0+
#219000
1!
1+
bzxxxx F
b110 Q!
#220000
0!
0+
b11 v!
b11 w!
#221000
1!
1+
bzxxxx F
b111 Q!
#222000
0!
0+
b110 R!
#223000
1!
1+
bzxxxx F
b0 Q!
#224000
0!
0+
#225000
1!
1+
bzxxxx F
b1 Q!
#226000
0!
0+
#227000
1!
1+
bzxxxx F
b10 Q!
#228000
0!
0+
#229000
1!
1+
bzxxxx F
b11 Q!
#230000
0!
0+
#231000
1!
1+
bzxxxx F
b100 Q!
#232000
0!
0+
#233000
1!
1+
bzxxxx F
b101 Q!
#234000
0!
0+
#235000
1!
1+
bzxxxx F
b110 Q!
#236000
0!
0+
#237000
1!
1+
bzxxxx F
b111 Q!
#238000
0!
0+
b111 R!
#239000
1!
1+
bzxxxx F
b0 Q!
#240000
0!
0+
#241000
1!
1+
bzxxxx F
b1 Q!
#242000
0!
0+
#243000
1!
1+
bzxxxx F
b10 Q!
#244000
0!
0+
#245000
1!
1+
bzxxxx F
b11 Q!
#246000
0!
0+
#247000
1!
1+
bzxxxx F
b100 Q!
#248000
0!
0+
#249000
1!
1+
bzxxxx F
b101 Q!
#250000
0!
0+
#251000
1!
1+
bzxxxx F
b110 Q!
#252000
0!
0+
#253000
1!
1+
bzxxxx F
b111 Q!
#254000
0!
0+
b0 R!
#255000
1!
1+
bzxxxx F
b0 Q!
#256000
0!
0+
#257000
1!
1+
bzxxxx F
b1 Q!
#258000
0!
0+
#259000
1!
1+
bzxxxx F
b10 Q!
#260000
0!
0+
#261000
1!
1+
bzxxxx F
b11 Q!
#262000
0!
0+
#263000
1!
1+
bzxxxx F
b100 Q!
#264000
0!
0+
#265000
1!
1+
bzxxxx F
b101 Q!
#266000
0!
0+
#267000
1!
1+
bzxxxx F
b110 Q!
#268000
0!
0+
#269000
1!
1+
bzxxxx F
b111 Q!
#270000
0!
0+
b1 R!
#271000
1!
1+
bzxxxx F
b0 Q!
#272000
0!
0+
#273000
1!
1+
bzxxxx F
b1 Q!
#274000
0!
0+
#275000
1!
1+
bzxxxx F
b10 Q!
#276000
0!
0+
#277000
1!
1+
bzxxxx F
b11 Q!
#278000
0!
0+
#279000
1!
1+
bzxxxx F
b100 Q!
#280000
0!
0+
#281000
1!
1+
bzxxxx F
b101 Q!
#282000
0!
0+
#283000
1!
1+
bzxxxx F
b110 Q!
#284000
0!
0+
#285000
1!
1+
bzxxxx F
b111 Q!
#286000
0!
0+
b10 R!
#287000
1!
1+
bzxxxx F
b0 Q!
#288000
0!
0+
#289000
1!
1+
bzxxxx F
b1 Q!
#290000
0!
0+
#291000
1!
1+
bzxxxx F
b10 Q!
#292000
0!
0+
#293000
1!
1+
bzxxxx F
b11 Q!
#294000
0!
0+
#295000
1!
1+
bzxxxx F
b100 Q!
#296000
0!
0+
#297000
1!
1+
bzxxxx F
b101 Q!
#298000
0!
0+
#299000
1!
1+
bzxxxx F
b110 Q!
#300000
0!
0+
#301000
1!
1+
bzxxxx F
b111 Q!
#302000
0!
0+
b11 R!
#303000
1!
1+
bzxxxx F
b0 Q!
#304000
0!
0+
#305000
1!
1+
bzxxxx F
b1 Q!
#306000
0!
0+
#307000
1!
1+
bzxxxx F
b10 Q!
#308000
0!
0+
#309000
1!
1+
bzxxxx F
b11 Q!
#310000
0!
0+
#311000
1!
1+
bzxxxx F
b100 Q!
#312000
0!
0+
#313000
1!
1+
bzxxxx F
b101 Q!
#314000
0!
0+
#315000
1!
1+
bzxxxx F
b110 Q!
#316000
0!
0+
#317000
1!
1+
bzxxxx F
b111 Q!
#318000
0!
0+
b100 R!
#319000
1!
1+
bzxxxx F
b0 Q!
#320000
0!
b1000 #
1$
0+
b1000 -
1.
b1000 A
b1000 t!
b101 u!
#321000
1!
1+
bzxxxx F
b1 Q!
#322000
0!
0+
#323000
1!
1+
bzxxxx F
b10 Q!
#324000
0!
0+
#325000
1!
1+
bzxxxx F
b11 Q!
#326000
0!
0+
#327000
1!
1+
bzxxxx F
b100 Q!
#328000
0!
0+
#329000
1!
1+
bzxxxx F
b101 Q!
#330000
0!
0$
0+
0.
#331000
1!
1+
bzxxxx F
b110 Q!
#332000
0!
0+
#333000
1!
1+
bzxxxx F
b111 Q!
#334000
0!
0+
b101 R!
#335000
1!
1+
bzxxxx F
b0 Q!
#336000
0!
0+
#337000
1!
1+
bzxxxx F
b1 Q!
#338000
0!
0+
#339000
1!
1+
bzxxxx F
b10 Q!
#340000
0!
b101 #
1%
0+
b101 -
1/
b101 B
#341000
1!
1+
bzxxxx F
b11 Q!
#342000
0!
0+
#343000
1!
1+
bzxxxx F
b100 Q!
#344000
0!
0+
#345000
1!
1+
bzxxxx F
b101 Q!
#346000
0!
0+
#347000
1!
1+
bzxxxx F
b110 Q!
#348000
0!
0+
#349000
1!
1+
bzxxxx F
b111 Q!
#350000
0!
0%
0+
0/
b110 R!
#351000
1!
1+
bzxxxx F
b0 Q!
#352000
0!
0+
#353000
1!
1+
bzxxxx F
b1 Q!
#354000
0!
0+
#355000
1!
1+
bzxxxx F
b10 Q!
#356000
0!
0+
#357000
1!
1+
bzxxxx F
b11 Q!
#358000
0!
0+
#359000
1!
1+
bzxxxx F
b100 Q!
#360000
0!
0+
b1 v!
#361000
1!
1+
bzxxxx F
b101 Q!
#362000
0!
0+
#363000
1!
1+
bzxxxx F
b110 Q!
#364000
0!
0+
#365000
1!
1+
bzxxxx F
b111 Q!
#366000
0!
0+
b111 R!
#367000
1!
1+
bzxxxx F
b0 Q!
#368000
0!
0+
#369000
1!
1+
bzxxxx F
b1 Q!
#370000
0!
0+
#371000
1!
1+
bzxxxx F
b10 Q!
#372000
0!
0+
#373000
1!
1+
bzxxxx F
b11 Q!
#374000
0!
0+
#375000
1!
1+
bzxxxx F
b100 Q!
#376000
0!
0+
#377000
1!
1+
bzxxxx F
b101 Q!
#378000
0!
0+
#379000
1!
1+
bzxxxx F
b110 Q!
#380000
0!
0+
#381000
1!
1+
bzxxxx F
b111 Q!
#382000
0!
0+
b0 R!
#383000
1!
1+
bzxxxx F
b0 Q!
#384000
0!
0+
#385000
1!
1+
bzxxxx F
b1 Q!
#386000
0!
0+
#387000
1!
1+
bzxxxx F
b10 Q!
#388000
0!
0+
#389000
1!
1+
bzxxxx F
b11 Q!
#390000
0!
0+
#391000
1!
1+
bzxxxx F
b100 Q!
#392000
0!
0+
#393000
1!
1+
bzxxxx F
b101 Q!
#394000
0!
0+
#395000
1!
1+
bzxxxx F
b110 Q!
#396000
0!
0+
#397000
1!
1+
bzxxxx F
b111 Q!
#398000
0!
0+
b1 R!
#399000
1!
1+
bzxxxx F
b0 Q!
#400000
0!
0+
#401000
1!
1+
bzxxxx F
b1 Q!
#402000
0!
0+
#403000
1!
1+
bzxxxx F
b10 Q!
#404000
0!
0+
#405000
1!
1+
bzxxxx F
b11 Q!
#406000
0!
0+
#407000
1!
1+
bzxxxx F
b100 Q!
#408000
0!
0+
#409000
1!
1+
bzxxxx F
b101 Q!
#410000
0!
0+
#411000
1!
1+
bzxxxx F
b110 Q!
#412000
0!
0+
#413000
1!
1+
bzxxxx F
b111 Q!
#414000
0!
0+
b10 R!
#415000
1!
1+
bzxxxx F
b0 Q!
#416000
0!
0+
#417000
1!
1+
bzxxxx F
b1 Q!
#418000
0!
0+
#419000
1!
1+
bzxxxx F
b10 Q!
#420000
0!
0+
#421000
1!
1+
bzxxxx F
b11 Q!
#422000
0!
0+
#423000
1!
1+
bzxxxx F
b100 Q!
#424000
0!
0+
#425000
1!
1+
bzxxxx F
b101 Q!
#426000
0!
0+
#427000
1!
1+
bzxxxx F
b110 Q!
#428000
0!
0+
#429000
1!
1+
bzxxxx F
b111 Q!
#430000
0!
0+
b11 R!
#431000
1!
1+
bzxxxx F
b0 Q!
#432000
0!
0+
#433000
1!
1+
bzxxxx F
b1 Q!
#434000
0!
0+
#435000
1!
1+
bzxxxx F
b10 Q!
#436000
0!
0+
#437000
1!
1+
bzxxxx F
b11 Q!
#438000
0!
0+
#439000
1!
1+
bzxxxx F
b100 Q!
#440000
0!
0+
#441000
1!
1+
bzxxxx F
b101 Q!
#442000
0!
0+
#443000
1!
1+
bzxxxx F
b110 Q!
#444000
0!
0+
#445000
1!
1+
bzxxxx F
b111 Q!
#446000
0!
0+
b100 R!
#447000
1!
1+
bzxxxx F
b0 Q!
#448000
0!
0+
#449000
1!
1+
bzxxxx F
b1 Q!
#450000
0!
0+
#451000
1!
1+
bzxxxx F
b10 Q!
#452000
0!
0+
#453000
1!
1+
bzxxxx F
b11 Q!
#454000
0!
0+
#455000
1!
1+
bzxxxx F
b100 Q!
#456000
0!
0+
#457000
1!
1+
bzxxxx F
b101 Q!
#458000
0!
0+
#459000
1!
1+
bzxxxx F
b110 Q!
#460000
0!
b11111111111111111111111111110100 #
1$
1&
1'
1)
b0zzzzzzzzzzzzzzzz *
0+
b11111111111111111111111111110100 -
1.
10
11
16
b11111111111111111111111111110100 A
1K!
b0zzzzzzzzzzzzzzzz N!
1S!
b11111111111111111111111111110100 t!
b11 u!
#461000
1!
1+
bzxxxx F
b111 Q!
#462000
0!
0+
b101 R!
#463000
1!
1+
bzxxxx F
b0 Q!
#464000
0!
0+
#465000
1!
1+
bzxxxx F
b1 Q!
#466000
0!
0+
#467000
1!
1+
bzxxxx F
b10 Q!
#468000
0!
0+
#469000
1!
1+
bzxxxx F
b11 Q!
#470000
0!
0$
0+
0.
#471000
1!
1+
bzxxxx F
b100 Q!
#472000
0!
0+
#473000
1!
1+
bzxxxx F
b101 Q!
#474000
0!
0+
#475000
1!
1+
bzxxxx F
b110 Q!
#476000
0!
0+
#477000
1!
1+
bzxxxx F
b111 Q!
#478000
0!
0+
b110 R!
#479000
1!
1+
bzxxxx F
b0 Q!
#480000
0!
b11 #
1%
0+
b11 -
1/
b11 B
#481000
1!
1+
bzxxxx F
b1 Q!
#482000
0!
0+
#483000
1!
1+
bzxxxx F
b10 Q!
#484000
0!
0+
#485000
1!
1+
bzxxxx F
b11 Q!
#486000
0!
0+
#487000
1!
1+
bzxxxx F
b100 Q!
#488000
0!
0+
#489000
1!
1+
bzxxxx F
b101 Q!
#490000
0!
0%
0+
0/
#491000
1!
1+
bzxxxx F
b110 Q!
#492000
0!
0+
#493000
1!
1+
bzxxxx F
b111 Q!
#494000
0!
0+
b111 R!
#495000
1!
1+
bzxxxx F
b0 Q!
#496000
0!
0+
#497000
1!
1+
bzxxxx F
b1 Q!
#498000
0!
0+
#499000
1!
1+
bzxxxx F
b10 Q!
#500000
0!
0+
b11111111111111111111111111111100 v!
b0 w!
#501000
1!
1+
bzxxxx F
b11 Q!
#502000
0!
0+
#503000
1!
1+
bzxxxx F
b100 Q!
#504000
0!
0+
#505000
1!
1+
bzxxxx F
b101 Q!
#506000
0!
0+
#507000
1!
1+
bzxxxx F
b110 Q!
#508000
0!
0+
#509000
1!
1+
bzxxxx F
b111 Q!
#510000
0!
0+
b0 R!
#511000
1!
1+
bzxxxx F
b0 Q!
#512000
0!
0+
#513000
1!
1+
bzxxxx F
b1 Q!
#514000
0!
0+
#515000
1!
1+
bzxxxx F
b10 Q!
#516000
0!
0+
#517000
1!
1+
bzxxxx F
b11 Q!
#518000
0!
0+
#519000
1!
1+
bzxxxx F
b100 Q!
#520000
0!
0+
#521000
1!
1+
bzxxxx F
b101 Q!
#522000
0!
0+
#523000
1!
1+
bzxxxx F
b110 Q!
#524000
0!
0+
#525000
1!
1+
bzxxxx F
b111 Q!
#526000
0!
0+
b1 R!
#527000
1!
1+
bzxxxx F
b0 Q!
#528000
0!
0+
#529000
1!
1+
bzxxxx F
b1 Q!
#530000
0!
0+
#531000
1!
1+
bzxxxx F
b10 Q!
#532000
0!
0+
#533000
1!
1+
bzxxxx F
b11 Q!
#534000
0!
0+
#535000
1!
1+
bzxxxx F
b100 Q!
#536000
0!
0+
#537000
1!
1+
bzxxxx F
b101 Q!
#538000
0!
0+
#539000
1!
1+
bzxxxx F
b110 Q!
#540000
0!
0+
#541000
1!
1+
bzxxxx F
b111 Q!
